…
# Nodes of interest

Select nodes with more than 5% discordant gene trees to investigate
introgression:

``` r
# A lot of discordant gene trees can indicate a number of things, ILS, introgression, error in the gene trees etc
most_discord = observed_delta %>%
  filter(prop_discord_trees > 5)
most_discord # 43 of the 59 nodes have over 5% of discordant trees
```

    ## # A tibble: 86 x 22
    ## # Rowwise: 
    ##       ID   gCF gCF_N  gDF1 gDF1_N  gDF2 gDF2_N  gDFP gDFP_N    gN   sCF sCF_N
    ##    <int> <dbl> <int> <dbl>  <int> <dbl>  <int> <dbl>  <int> <int> <dbl> <dbl>
    ##  1    63  32.8   251  6.27     48  8.62     66  52.4    401   766  49.6  850.
    ##  2    64  20.2   167 12.1     100  7.02     58  60.6    501   826  30.7  355.
    ##  3    65  21.5    29  5.19      7  1.48      2  71.8     97   135  48.1  126.
    ##  4    67  19.4   161  4.81     40  5.65     47  70.2    584   832  37.0  504.
    ##  5    69  12.6    91  9.85     71  4.85     35  72.7    524   721  29.2  358.
    ##  6    70  29.9   181  3.64     22 10.9      66  55.5    336   605  44.9  503.
    ##  7    71  59.0   411  1.87     13  3.16     22  36.0    251   697  54    481.
    ##  8    72  46.3   374  4.33     35  7.18     58  42.2    341   808  45.8  563.
    ##  9    73  18.1   150 13.1     108 12.4     103  56.4    466   827  33.9  448.
    ## 10    74  14.7   108 15.0     110 16.1     118  54.2    398   734  34.7  606.
    ## # … with 76 more rows, and 10 more variables: sDF1 <dbl>, sDF1_N <dbl>,
    ## #   sDF2 <dbl>, sDF2_N <dbl>, sN <dbl>, Label <int>, Length <dbl>, tree <chr>,
    ## #   prop_discord_trees <dbl>, delta <dbl>
…
    ## <list_of<
    ##   tbl_df<
    ##     tree: character
    ##     ID  : integer
    ##     mean: double
    ##     sd  : double
    ##   >
    ## >[2]>
    ## [[1]]
    ## # A tibble: 59 x 4
    ##    tree          ID  mean     sd
    ##    <chr>      <int> <dbl>  <dbl>
    ##  1 Topology 1    63 0.164 0.0854
    ##  2 Topology 1    64 0.268 0.0757
    ##  3 Topology 1    65 0.570 0.272 
    ##  4 Topology 1    66 0.441 0.364 
    ##  5 Topology 1    67 0.109 0.0789
    ##  6 Topology 1    68 0.749 0.167 
    ##  7 Topology 1    69 0.339 0.0915
    ##  8 Topology 1    70 0.503 0.0919
    ##  9 Topology 1    71 0.263 0.150 
    ## 10 Topology 1    72 0.251 0.101 
    ## # … with 49 more rows
    ## 
    ## [[2]]
    ## # A tibble: 59 x 4
    ##    tree          ID   mean     sd
    ##    <chr>      <int>  <dbl>  <dbl>
    ##  1 Topology 2    63 0.164  0.0854
    ##  2 Topology 2    64 0.268  0.0757
    ##  3 Topology 2    65 0.570  0.272 
    ##  4 Topology 2    66 0.441  0.364 
    ##  5 Topology 2    67 0.109  0.0789
    ##  6 Topology 2    68 0.183  0.139 
    ##  7 Topology 2    69 0.0751 0.0570
    ##  8 Topology 2    70 0.202  0.0648
    ##  9 Topology 2    71 0.434  0.100 
    ## 10 Topology 2    72 0.263  0.150 
    ## # … with 49 more rows
…
    ## <list_of<
    ##   tbl_df<
    ##     ID                : integer
    ##     tree              : character
    ##     prop_discord_trees: double
    ##     delta             : double
    ##     zscore            : double
    ##     CDF_prob          : double
    ##     pvalue            : double
    ##   >
    ## >[2]>
    ## [[1]]
    ## # A tibble: 43 x 7
    ##       ID tree       prop_discord_trees delta   zscore CDF_prob pvalue
    ##    <int> <chr>                   <dbl> <dbl>    <dbl>    <dbl>  <dbl>
    ##  1    92 Topology 1              24.0  0.294  0.0569     0.523  0.477
    ##  2   101 Topology 1               9.98 0.613  0.0375     0.515  0.485
    ##  3    82 Topology 1              42.8  0.240  0.0159     0.506  0.494
    ##  4    69 Topology 1              14.7  0.340  0.00327    0.501  0.499
    ##  5    75 Topology 1              13.4  0.168  0.00130    0.501  0.499
    ##  6    90 Topology 1              10.2  0.7   -0.0144     0.494  0.506
    ##  7    81 Topology 1              41.9  0.446 -0.0153     0.494  0.506
    ##  8    98 Topology 1              12.6  0.3   -0.0238     0.491  0.509
    ##  9    64 Topology 1              19.1  0.266 -0.0240     0.490  0.510
    ## 10   100 Topology 1               7.7  0.571 -0.0290     0.488  0.512
    ## # … with 33 more rows
    ## 
    ## [[2]]
    ## # A tibble: 43 x 7
    ##       ID tree       prop_discord_trees delta   zscore CDF_prob pvalue
    ##    <int> <chr>                   <dbl> <dbl>    <dbl>    <dbl>  <dbl>
    ##  1    92 Topology 2              24.0  0.294  0.0569     0.523  0.477
    ##  2   101 Topology 2               9.98 0.613  0.0375     0.515  0.485
    ##  3    77 Topology 2              39.8  0.182  0.0163     0.506  0.494
    ##  4    74 Topology 2              29.5  0.228  0.00704    0.503  0.497
    ##  5    90 Topology 2              10.2  0.7   -0.0144     0.494  0.506
    ##  6    76 Topology 2              44.2  0.353 -0.0154     0.494  0.506
    ##  7    71 Topology 2              10.2  0.432 -0.0203     0.492  0.508
    ##  8    98 Topology 2              12.6  0.3   -0.0238     0.491  0.509
    ##  9    64 Topology 2              19.1  0.266 -0.0240     0.490  0.510
    ## 10    70 Topology 2              22    0.2   -0.0289     0.488  0.512
    ## # … with 33 more rows
…
