…
# Transcriptomes metadata

This is Supplementary Table S1 in Dryad:

``` r
data_spp = read_csv("../data/Gastropoda Transcriptomes - Data.csv")
data_spp
```

    ## # A tibble: 62 x 23
    ##    `Terminal Name … Species Clade Family Genus SRA   Voucher `Illumina Index`
    ##    <chr>            <chr>   <chr> <chr>  <chr> <chr> <chr>   <chr>           
    ##  1 Amblychilepas_n… Amblyc… Veti… Fissu… Ambl… <NA>  MCZ 37… 4               
    ##  2 Diodora_listeri… Diodor… Veti… Fissu… Diod… <NA>  MCZ 38… 4               
    ##  3 Emarginula_3862… Emargi… Veti… Fissu… Emar… <NA>  MCZ 38… 6               
    ##  4 Fissurella_nodo… Fissur… Veti… Fissu… Fiss… <NA>  MCZ 38… 12              
    ##  5 Hemitoma_octora… Hemito… Veti… Fissu… Hemi… <NA>  MCZ 38… 6               
    ##  6 Lucapina_suffus… Lucapi… Veti… Fissu… Luca… <NA>  MCZ 37… 1               
    ##  7 Montfortula_rug… Montfo… Veti… Fissu… Mont… <NA>  MCZ 37… 2               
    ##  8 Puncturella_378… Punctu… Veti… Fissu… Punc… <NA>  MCZ 37… 11              
    ##  9 Scutus_386180    Scutus… Veti… Fissu… Scut… <NA>  MCZ 38… 7               
    ## 10 Haliotis_ovina_… Haliot… Veti… Halio… Hali… SRR8… MCZ 38… 5               
    ## # … with 52 more rows, and 15 more variables: `Number of Read Pairs` <dbl>,
    ## #   `Number of Read Pairs After Filtering` <dbl>, N50 <dbl>, `Final Number of
    ## #   Peptides` <dbl>, BUSCO <chr>, Source <chr>, DOI <chr>, Sequencing <chr>,
    ## #   `Voucher Link` <chr>, `% Genes in Matrix 1` <dbl>, `% Genes in Matrix
    ## #   2` <dbl>, `% Genes in Matrix 3` <dbl>, `% Genes in Matrix 4` <dbl>, `%
    ## #   Genes in Matrix 5` <dbl>, `% Genes in Matrix 6` <dbl>
…
``` r
clade_nodes
```

    ## # A tibble: 380 x 4
    ##    tree          clade             node offspring
    ##    <chr>         <chr>            <dbl> <list>   
    ##  1 Astral_M1     Pleurotomariidae    51 <dbl [5]>
    ##  2 Astral_M2     Pleurotomariidae    51 <dbl [5]>
    ##  3 Astral_M3     Pleurotomariidae    51 <dbl [5]>
    ##  4 Astral_M4     Pleurotomariidae    51 <dbl [5]>
    ##  5 IQTREEcat_M1  Pleurotomariidae    51 <dbl [5]>
    ##  6 IQTREEcat_M2  Pleurotomariidae    51 <dbl [5]>
    ##  7 IQTREEcat_M3  Pleurotomariidae    51 <dbl [5]>
    ##  8 IQTREEcat_M4  Pleurotomariidae    51 <dbl [5]>
    ##  9 IQTREEpart_M1 Pleurotomariidae    51 <dbl [5]>
    ## 10 IQTREEpart_M2 Pleurotomariidae    51 <dbl [5]>
    ## # … with 370 more rows
…
