…
Likelihood mapping of genes for Haliotidae node:

``` r
lmap_genes_H = read.csv("../data/lmap_summary_Haliotidae", sep = "") %>%
  mutate(OG = factor(paste0(OG, ".trimmed.fa"))) %>%
  rowwise() %>%
  mutate(Resolved = round(sum(a1,a2,a3)/X.quartets*100, digits=2),
         Edges = round(sum(a4,a5,a6)/X.quartets*100, digits=2),
         Unresolved = round(sum(a4,a5,a6,a7)/X.quartets*100, digits=2)) %>%
  select(OG, X.quartets, Resolved, Edges, Unresolved, a1:X.a7) %>%
  arrange(OG)
lmap_genes_H
```

    ## # A tibble: 596 x 19
    ## # Rowwise: 
    ##    OG    X.quartets Resolved Edges Unresolved    a1  X.a1    a2  X.a2    a3
    ##    <fct>      <int>    <dbl> <dbl>      <dbl> <int> <dbl> <int> <dbl> <int>
    ##  1 OG10…         38     36.8 42.1       63.2      0  0       14 36.8      0
    ##  2 OG10…         84     88.1 10.7       11.9     52 61.9     20 23.8      2
    ##  3 OG10…        276     70.3 22.8       29.7    175 63.4     13  4.71     6
    ##  4 OG10…         36     91.7  8.33       8.33     0  0       33 91.7      0
    ##  5 OG10…         54     48.2 31.5       51.8     19 35.2      5  9.26     2
    ##  6 OG10…         60     71.7 18.3       28.3     17 28.3     22 36.7      4
    ##  7 OG10…         36     83.3 11.1       16.7      1  2.78    26 72.2      3
    ##  8 OG10…         40     80    7.5       20        0  0        1  2.5     31
    ##  9 OG10…         32     75   12.5       25        0  0       20 62.5      4
    ## 10 OG10…        225     42.2 20         57.8     86 38.2      0  0        9
    ## # … with 586 more rows, and 9 more variables: X.a3 <dbl>, a4 <int>, X.a4 <dbl>,
    ## #   a5 <int>, X.a5 <dbl>, a6 <int>, X.a6 <dbl>, a7 <int>, X.a7 <dbl>
Likelihood mapping of genes for Fissurellidae node:

``` r
lmap_genes_F = read.csv("../data/lmap_summary_Fissurellidae", sep = "") %>%
  mutate(OG = factor(paste0(OG, ".trimmed.fa"))) %>%
  rowwise() %>%
  mutate(Resolved = round(sum(a1,a2,a3)/X.quartets*100, digits=2),
         Edges = round(sum(a4,a5,a6)/X.quartets*100, digits=2),
         Unresolved = round(sum(a4,a5,a6,a7)/X.quartets*100, digits=2)) %>%
  select(OG, X.quartets, Resolved, Edges, Unresolved, a1:X.a7) %>%
  arrange(OG)
lmap_genes_F
```

    ## # A tibble: 835 x 19
    ## # Rowwise: 
    ##    OG    X.quartets Resolved Edges Unresolved    a1  X.a1    a2  X.a2    a3
    ##    <fct>      <int>    <dbl> <dbl>      <dbl> <int> <dbl> <int> <dbl> <int>
    ##  1 OG10…        630     62.4 20.8       37.6    186 29.5      6  0.95   201
    ##  2 OG10…         90     41.1 23.3       58.9      0  0       18 20       19
    ##  3 OG10…        152     96.0  2.63       3.95     0  0      146 96.0      0
    ##  4 OG10…        288     54.5 27.4       45.5     41 14.2     28  9.72    88
    ##  5 OG10…        336     82.7 14.9       17.3    225 67.0     47 14.0      6
    ##  6 OG10…       1656     39.5 22.9       60.5     39  2.36   337 20.4    278
    ##  7 OG10…        108     75.9 18.5       24.1      7  6.48    72 66.7      3
    ##  8 OG10…        378     47.4 27.0       52.6     86 22.8     20  5.29    73
    ##  9 OG10…        360     82.5 15.6       17.5     21  5.83    19  5.28   257
    ## 10 OG10…        216     68.1 24.5       31.9     74 34.3     65 30.1      8
    ## # … with 825 more rows, and 9 more variables: X.a3 <dbl>, a4 <int>, X.a4 <dbl>,
    ## #   a5 <int>, X.a5 <dbl>, a6 <int>, X.a6 <dbl>, a7 <int>, X.a7 <dbl>
…
Combine gathered df for both recalcitrant nodes, and add column on
informative x non-informative genes from resHF:

``` r
gathered = rbind(gathered_H, gathered_F) %>%
  mutate(node = fct_relevel(node, "Haliotidae", "Fissurellidae")) %>%
  left_join(., resHF %>% select(OG, determination),  by="OG") %>%
  left_join(., extra_data, by = "OG")
gathered
```

    ## # A tibble: 10,017 x 26
    ##    OG    X.quartets Resolved Edges Unresolved    a1    a2    a3    a4    a5
    ##    <chr>      <int>    <dbl> <dbl>      <dbl> <int> <int> <int> <int> <int>
    ##  1 OG10…         38     36.8 42.1       63.2      0    14     0    13     3
    ##  2 OG10…         84     88.1 10.7       11.9     52    20     2     7     0
    ##  3 OG10…        276     70.3 22.8       29.7    175    13     6    24    21
    ##  4 OG10…         36     91.7  8.33       8.33     0    33     0     1     2
    ##  5 OG10…         54     48.2 31.5       51.8     19     5     2     5     4
    ##  6 OG10…         60     71.7 18.3       28.3     17    22     4     6     1
    ##  7 OG10…         36     83.3 11.1       16.7      1    26     3     2     2
    ##  8 OG10…         40     80    7.5       20        0     1    31     0     0
    ##  9 OG10…         32     75   12.5       25        0    20     4     0     4
    ## 10 OG10…        225     42.2 20         57.8     86     0     9     0     0
    ## # … with 10,007 more rows, and 16 more variables: a6 <int>, a7 <int>,
    ## #   lmap_area <fct>, percent <dbl>, lmap_cat <chr>, lmap_pos <fct>, node <fct>,
    ## #   determination <chr>, Alignment_Length <int>, Conservation_Score <dbl>,
    ## #   Evolutionary_Rate <dbl>, rates_status <fct>, p4_pval <dbl>,
    ## #   p4_status <chr>, ntaxa <int>, occupancy_status <chr>
…
# Subset of genes for StarBeast2

Pick subset of most informative genes, the ones with highest percentage
of resolved / lowest percentage of unresolved quartets:

Set of genes that are well resolved for both Haliotoidea and
Fissurelloidea:

``` r
resolved70_HF = resHF %>% filter(Resolved_F>=70 & Resolved_H>=70)
resolved75_HF = resHF %>% filter(Resolved_F>=75 & Resolved_H>=75)
resolved70_HF # 80 genes
```

    ## # A tibble: 80 x 4
    ## # Rowwise: 
    ##    OG                 Resolved_H Resolved_F determination
    ##    <fct>                   <dbl>      <dbl> <chr>        
    ##  1 OG10296.trimmed.fa       88.1       82.7 informative  
    ##  2 OG10468.trimmed.fa       91.7       75.9 informative  
    ##  3 OG10540.trimmed.fa       71.7       82.5 informative  
    ##  4 OG10634.trimmed.fa       75         70.8 informative  
    ##  5 OG11529.trimmed.fa       85         79.2 informative  
    ##  6 OG1160.trimmed.fa        94.4       80.6 informative  
    ##  7 OG13224.trimmed.fa       70         70.7 informative  
    ##  8 OG13424.trimmed.fa       79.6       87.0 informative  
    ##  9 OG14476.trimmed.fa      100         76.7 informative  
    ## 10 OG15011.trimmed.fa       70         81.6 informative  
    ## # … with 70 more rows

``` r
resolved75_HF # 44 genes
```

    ## # A tibble: 44 x 4
    ## # Rowwise: 
    ##    OG                 Resolved_H Resolved_F determination
    ##    <fct>                   <dbl>      <dbl> <chr>        
    ##  1 OG10296.trimmed.fa       88.1       82.7 informative  
    ##  2 OG10468.trimmed.fa       91.7       75.9 informative  
    ##  3 OG11529.trimmed.fa       85         79.2 informative  
    ##  4 OG1160.trimmed.fa        94.4       80.6 informative  
    ##  5 OG13424.trimmed.fa       79.6       87.0 informative  
    ##  6 OG14476.trimmed.fa      100         76.7 informative  
    ##  7 OG15053.trimmed.fa       88.9       76.8 informative  
    ##  8 OG15745.trimmed.fa       92.9       94.9 informative  
    ##  9 OG1612.trimmed.fa        79.5       80.3 informative  
    ## 10 OG17546.trimmed.fa       87.2       84.2 informative  
    ## # … with 34 more rows
…
Determine which area of the LMAP plot has the highest quartet support
per gene:

``` r
top_area = gathered %>%
  group_by(node, OG) %>% # For each gene
  #slice(which.max(percent)) # slice only one line with the highest % quartet
  filter(percent == max(percent)) %>% # allows multiple max matches
  arrange(OG) #%>%
  #ungroup() %>% group_by(node) %>% group_split(node)
top_area
```

    ## # A tibble: 1,456 x 26
    ## # Groups:   node, OG [1,431]
    ##    OG    X.quartets Resolved Edges Unresolved    a1    a2    a3    a4    a5
    ##    <chr>      <int>    <dbl> <dbl>      <dbl> <int> <int> <int> <int> <int>
    ##  1 OG10…        630     62.4 20.8       37.6    186     6   201    16     5
    ##  2 OG10…         90     41.1 23.3       58.9      0    18    19     0    18
    ##  3 OG10…         38     36.8 42.1       63.2      0    14     0    13     3
    ##  4 OG10…        152     96.0  2.63       3.95     0   146     0     2     2
    ##  5 OG10…        288     54.5 27.4       45.5     41    28    88    19    27
    ##  6 OG10…         84     88.1 10.7       11.9     52    20     2     7     0
    ##  7 OG10…        336     82.7 14.9       17.3    225    47     6    27     0
    ##  8 OG10…        276     70.3 22.8       29.7    175    13     6    24    21
    ##  9 OG10…       1656     39.5 22.9       60.5     39   337   278   191   147
    ## 10 OG10…         36     91.7  8.33       8.33     0    33     0     1     2
    ## # … with 1,446 more rows, and 16 more variables: a6 <int>, a7 <int>,
    ## #   lmap_area <fct>, percent <dbl>, lmap_cat <chr>, lmap_pos <fct>, node <fct>,
    ## #   determination <chr>, Alignment_Length <int>, Conservation_Score <dbl>,
    ## #   Evolutionary_Rate <dbl>, rates_status <fct>, p4_pval <dbl>,
    ## #   p4_status <chr>, ntaxa <int>, occupancy_status <chr>
…
